locatie,Dec-Jan-Feb,Mar-Apr-May,Jun-Jul-Aug,Sep-Oct-Nov
GOOIMMDN,0.0,0.9999999999999998,-0.6529799053705,-1.0
HARLGVHVN,1.0,-0.24668551959123117,-0.7705883387417183,-0.6245683009497456
LAUWOHVMD,1.0,-0.417865152002294,-0.4889416586783692,0.8719386679630818
NULDHK,0.0,-1.0,-0.6994468805949168,-1.0
